{
    "target" : "SkRobot.bin",
    "platform" : "",
    "compiler" : "/usr/bin/g++",
    "buildPath" : "build",
    "debugger" : "/usr/bin/gdb",

    "buildOptions" : [
        "-pipe",
        "-g",
        "-std=gnu++11",
        "-Wall",
        "-W",
        "-fPIC"
    ],

    "sourcesPaths" : [
        "./src",
        "../SpecialK/LibSkFlat",
        "../SpecialK/LibSkCore",
        "../SpecialK/LibSkIoT",
        "../SpecialK/LibSkAudio",
        "../SpecialK/LibSkScript",
        "../SpecialK/LibSkMultimedia",
        "../SpecialK/LibSkVision"
    ],

    "includeOptPaths" : [
        "-I/usr/local/include/opencv4",
        "-I/usr/local/include/opencv4/opencv2",
        "-I/usr/include/opencv4",
        "-I/usr/include/opencv4/opencv2",
        "-I/usr/include/eigen3"
    ],

    "dynamicDeps" : [
        "Modules/skcamera.h",
        "Modules/skvideosource.h",
        "Modules/skaudiocapture.h",
        "Modules/skcamera.h",
        "Modules/skmotiondetector.h",
        "Modules/skcodedetector.h",
        "Modules/skobjectdetector.h",
        "Modules/skfacerecognizer.h",
        "Modules/skspectrogram.h"
    ],

    "defines" : [
        "-DSPECIALK_APPLICATION",
        "-DENABLE_SKAPP",
        "-DENABLE_AES",
        "-DENABLE_SSL",
        "-DENABLE_HTTP",
        "-DENABLE_XML",
        "-DENABLE_SKASM",
        "-DENABLE_CV",
        "-DENABLE_AUDIO",
        "-DENABLE_AUDIOENCLIBS",
        "-DENABLE_PORTAUDIOLIB",
        "-DENABLE_VLCLIBS",
        "-DENABLE_TEXT_TO_SPEECH",
        "-DENABLE_FFTW3LIB"
    ],

    "libs" : [
        "-lpthread",
        "-lm",
        "-lz",
        "-lssl",
        "-lcrypto",
        "-lcrypt",
        "-lfftw3",
        "-lportaudio",
        "-logg",
        "-lvorbis",
        "-lvorbisenc",
        "-lopencv_core",
        "-lopencv_videoio",
        "-lopencv_imgproc",
        "-lopencv_imgcodecs",
        "-lopencv_xphoto",
        "-lopencv_face",
        "-lopencv_objdetect",
        "-lopencv_calib3d",
        "-lopencv_features2d",
        "-lzbar"
    ],

    "fsToH" : [
        {
            "root" : "./rootfs/pages.d",
            "binary" : false,
            "arrayName" : "pages_d",
            "out" : "./src/Init/pages_d.h"
        },
        {
            "root" : "./rootfs/users.d",
            "binary" : false,
            "arrayName" : "users_d",
            "out" : "./src/Init/users_d.h"
        },
        {
            "root" : "./rootfs/templates",
            "binary" : true,
            "arrayName" : "templates",
            "out" : "./src/Init/templates.h"
        },
        {
            "root" : "./rootfs/www",
            "binary" : true,
            "arrayName" : "www",
            "out" : "./src/Init/www.h"
        }
    ]
}
